<?xml version="1.0" standalone="no"?>
<!DOCTYPE svg PUBLIC "-//W3C//DTD SVG 20010904//EN"
 "http://www.w3.org/TR/2001/REC-SVG-20010904/DTD/svg10.dtd">
<svg version="1.0" xmlns="http://www.w3.org/2000/svg"
 width="640.000000pt" height="480.000000pt" viewBox="0 0 640.000000 480.000000"
 preserveAspectRatio="xMidYMid meet">
<metadata>
Created by potrace 1.15, written by Peter Selinger 2001-2017
</metadata>
<g transform="translate(0.000000,480.000000) scale(0.100000,-0.100000)"
fill="#000000" stroke="none">
<path d="M2990 3405 l0 -775 -775 0 -775 0 0 -210 0 -210 775 0 775 0 2 -777
3 -778 208 -3 207 -2 0 780 0 780 780 0 780 0 -2 208 -3 207 -777 3 -778 2 0
775 0 775 -210 0 -210 0 0 -775z"/>
</g>
</svg>
